{
    "key": "group_6540239d3d4db",
    "title": "Instagram Feed",
    "fields": [
        {
            "key": "field_6540239db64cd",
            "label": "Instagram Feed Shortcode",
            "name": "shortcode",
            "aria-label": "",
            "type": "text",
            "instructions": "This is the shortcode provided by the Smash Balloon plugin",
            "required": 1,
            "conditional_logic": 0,
            "wrapper": {
                "width": "",
                "class": "",
                "id": ""
            },
            "default_value": "",
            "maxlength": "",
            "placeholder": "",
            "prepend": "",
            "append": ""
        }
    ],
    "location": [
        [
            {
                "param": "block",
                "operator": "==",
                "value": "acf\/instagram-feed"
            }
        ]
    ],
    "menu_order": 0,
    "position": "normal",
    "style": "default",
    "label_placement": "top",
    "instruction_placement": "label",
    "hide_on_screen": "",
    "active": true,
    "description": "",
    "show_in_rest": 0,
    "modified": 1698702415
}
