{
    "key": "group_65282ebec02dd",
    "title": "Work - CPT",
    "fields": [
        {
            "key": "field_65284dc2ac1db",
            "label": "Work Details",
            "name": "",
            "aria-label": "",
            "type": "tab",
            "instructions": "",
            "required": 0,
            "conditional_logic": 0,
            "wrapper": {
                "width": "",
                "class": "",
                "id": ""
            },
            "placement": "left",
            "endpoint": 0
        },
        {
            "key": "field_654bf2699670d",
            "label": "Work Tagline",
            "name": "work_tagline",
            "aria-label": "",
            "type": "text",
            "instructions": "This appears on the Work page underneath the client name.",
            "required": 0,
            "conditional_logic": 0,
            "wrapper": {
                "width": "",
                "class": "",
                "id": ""
            },
            "default_value": "",
            "maxlength": "",
            "placeholder": "",
            "prepend": "",
            "append": ""
        },
        {
            "key": "field_65282ebe54cac",
            "label": "Work Description",
            "name": "work_description",
            "aria-label": "",
            "type": "textarea",
            "instructions": "This description will appear in the <strong>Work Slider<\/strong> content block",
            "required": 0,
            "conditional_logic": 0,
            "wrapper": {
                "width": "50",
                "class": "",
                "id": ""
            },
            "default_value": "",
            "maxlength": "",
            "rows": "",
            "placeholder": "",
            "new_lines": ""
        },
        {
            "key": "field_654ceb9295e5f",
            "label": "Work Description (Billboard)",
            "name": "work_description_billboard",
            "aria-label": "",
            "type": "textarea",
            "instructions": "This description will appear in the <strong>Work Billboard<\/strong> content block",
            "required": 0,
            "conditional_logic": 0,
            "wrapper": {
                "width": "50",
                "class": "",
                "id": ""
            },
            "default_value": "",
            "maxlength": "",
            "rows": "",
            "placeholder": "",
            "new_lines": ""
        },
        {
            "key": "field_65284d6c54cae",
            "label": "Client Name",
            "name": "client_name",
            "aria-label": "",
            "type": "text",
            "instructions": "This will override the client name that is assigned to the client taxonomy term assigned to this particular work piece. Overriding this is useful if this particular work piece goes by a different name than the main client.",
            "required": 0,
            "conditional_logic": 0,
            "wrapper": {
                "width": "33",
                "class": "",
                "id": ""
            },
            "default_value": "",
            "maxlength": "",
            "placeholder": "",
            "prepend": "",
            "append": ""
        },
        {
            "key": "field_65284d8454caf",
            "label": "Client Logo",
            "name": "client_logo",
            "aria-label": "",
            "type": "image",
            "instructions": "This will override the client logo that is assigned to the client taxonomy term assigned to this particular work piece. Overriding this is useful if this particular work piece has a different logo than the client's main logo.",
            "required": 0,
            "conditional_logic": 0,
            "wrapper": {
                "width": "33",
                "class": "",
                "id": ""
            },
            "return_format": "id",
            "library": "all",
            "min_width": "",
            "min_height": "",
            "min_size": "",
            "max_width": "",
            "max_height": "",
            "max_size": "",
            "mime_types": "",
            "preview_size": "medium"
        },
        {
            "key": "field_6549525196d7f",
            "label": "Client Brand Color",
            "name": "client_brand_color",
            "aria-label": "",
            "type": "text",
            "instructions": "This color is used on the work piece's single page.",
            "required": 0,
            "conditional_logic": 0,
            "wrapper": {
                "width": "33",
                "class": "",
                "id": ""
            },
            "default_value": "",
            "maxlength": "",
            "placeholder": "",
            "prepend": "",
            "append": ""
        },
        {
            "key": "field_654d188de63ea",
            "label": "Custom URL",
            "name": "custom_url",
            "aria-label": "",
            "type": "true_false",
            "instructions": "Turn this on if you want links to this work piece to go to a different destination other than the work's single page.",
            "required": 0,
            "conditional_logic": 0,
            "wrapper": {
                "width": "50",
                "class": "",
                "id": ""
            },
            "message": "",
            "default_value": 0,
            "ui_on_text": "",
            "ui_off_text": "",
            "ui": 1
        },
        {
            "key": "field_654d18cce63eb",
            "label": "Custom Work URL",
            "name": "custom_work_url",
            "aria-label": "",
            "type": "link",
            "instructions": "",
            "required": 0,
            "conditional_logic": [
                [
                    {
                        "field": "field_654d188de63ea",
                        "operator": "==",
                        "value": "1"
                    }
                ]
            ],
            "wrapper": {
                "width": "50",
                "class": "",
                "id": ""
            },
            "return_format": "array"
        }
    ],
    "location": [
        [
            {
                "param": "post_type",
                "operator": "==",
                "value": "rcd_work"
            }
        ]
    ],
    "menu_order": 0,
    "position": "normal",
    "style": "default",
    "label_placement": "top",
    "instruction_placement": "label",
    "hide_on_screen": "",
    "active": true,
    "description": "",
    "show_in_rest": 0,
    "modified": 1699551467
}
