{
    "key": "group_6543a9f4e53ee",
    "title": "Video Carousel",
    "fields": [
        {
            "key": "field_6543a9f4e6743",
            "label": "Video Aspect Ratio",
            "name": "video_aspect_ratio",
            "aria-label": "",
            "type": "radio",
            "instructions": "",
            "required": 0,
            "conditional_logic": 0,
            "wrapper": {
                "width": "100",
                "class": "",
                "id": ""
            },
            "choices": {
                "widescreen": "16\/9 widescreen",
                "square": "1\/1 square",
                "mobile": "9\/16 mobile",
                "fullscreen": "4\/3 fullscreen"
            },
            "default_value": "widescreen",
            "return_format": "value",
            "allow_null": 0,
            "other_choice": 0,
            "layout": "vertical",
            "save_other_choice": 0
        },
        {
            "key": "field_6543a9f4e674f",
            "label": "Videos",
            "name": "videos",
            "aria-label": "",
            "type": "repeater",
            "instructions": "",
            "required": 0,
            "conditional_logic": 0,
            "wrapper": {
                "width": "",
                "class": "",
                "id": ""
            },
            "layout": "block",
            "pagination": 0,
            "min": 0,
            "max": 0,
            "collapsed": "",
            "button_label": "Add Video",
            "rows_per_page": 20,
            "sub_fields": [
                {
                    "key": "field_6543a9f4e792b",
                    "label": "Type",
                    "name": "type",
                    "aria-label": "",
                    "type": "select",
                    "instructions": "",
                    "required": 1,
                    "conditional_logic": 0,
                    "wrapper": {
                        "width": "40",
                        "class": "",
                        "id": ""
                    },
                    "choices": {
                        "iframe": "Embed\/Iframe",
                        "file": "File",
                        "url": "URL"
                    },
                    "default_value": "url",
                    "return_format": "value",
                    "multiple": 0,
                    "allow_null": 0,
                    "ui": 0,
                    "ajax": 0,
                    "placeholder": "",
                    "parent_repeater": "field_6543a9f4e674f"
                },
                {
                    "key": "field_6543a9f4e792f",
                    "label": "URL",
                    "name": "file",
                    "aria-label": "",
                    "type": "file",
                    "instructions": "",
                    "required": 0,
                    "conditional_logic": [
                        [
                            {
                                "field": "field_6543a9f4e792b",
                                "operator": "==",
                                "value": "file"
                            }
                        ]
                    ],
                    "wrapper": {
                        "width": "60",
                        "class": "",
                        "id": ""
                    },
                    "return_format": "url",
                    "library": "all",
                    "min_size": "",
                    "max_size": "",
                    "mime_types": "",
                    "parent_repeater": "field_6543a9f4e674f"
                },
                {
                    "key": "field_6543a9f4e7931",
                    "label": "URL",
                    "name": "url",
                    "aria-label": "",
                    "type": "text",
                    "instructions": "",
                    "required": 0,
                    "conditional_logic": [
                        [
                            {
                                "field": "field_6543a9f4e792b",
                                "operator": "==",
                                "value": "url"
                            }
                        ]
                    ],
                    "wrapper": {
                        "width": "60",
                        "class": "",
                        "id": ""
                    },
                    "default_value": "",
                    "maxlength": "",
                    "placeholder": "",
                    "prepend": "",
                    "append": "",
                    "parent_repeater": "field_6543a9f4e674f"
                },
                {
                    "key": "field_6543a9f4e7934",
                    "label": "Embed Code",
                    "name": "embed_code",
                    "aria-label": "",
                    "type": "textarea",
                    "instructions": "",
                    "required": 0,
                    "conditional_logic": [
                        [
                            {
                                "field": "field_6543a9f4e792b",
                                "operator": "==",
                                "value": "iframe"
                            }
                        ]
                    ],
                    "wrapper": {
                        "width": "60",
                        "class": "",
                        "id": ""
                    },
                    "default_value": "",
                    "maxlength": "",
                    "rows": "",
                    "placeholder": "",
                    "new_lines": "",
                    "parent_repeater": "field_6543a9f4e674f"
                },
                {
                    "key": "field_6543a9f4e7937",
                    "label": "Poster",
                    "name": "poster",
                    "aria-label": "",
                    "type": "image",
                    "instructions": "",
                    "required": 0,
                    "conditional_logic": [
                        [
                            {
                                "field": "field_6543a9f4e792b",
                                "operator": "!=",
                                "value": "iframe"
                            }
                        ]
                    ],
                    "wrapper": {
                        "width": "25",
                        "class": "",
                        "id": ""
                    },
                    "return_format": "id",
                    "library": "all",
                    "min_width": "",
                    "min_height": "",
                    "min_size": "",
                    "max_width": "",
                    "max_height": "",
                    "max_size": "",
                    "mime_types": "",
                    "preview_size": "medium",
                    "parent_repeater": "field_6543a9f4e674f"
                },
                {
                    "key": "field_6543a9f4e793a",
                    "label": "Loop",
                    "name": "loop",
                    "aria-label": "",
                    "type": "true_false",
                    "instructions": "",
                    "required": 0,
                    "conditional_logic": [
                        [
                            {
                                "field": "field_6543a9f4e792b",
                                "operator": "!=",
                                "value": "iframe"
                            }
                        ]
                    ],
                    "wrapper": {
                        "width": "25",
                        "class": "",
                        "id": ""
                    },
                    "message": "",
                    "default_value": 0,
                    "ui_on_text": "",
                    "ui_off_text": "",
                    "ui": 1,
                    "parent_repeater": "field_6543a9f4e674f"
                },
                {
                    "key": "field_6543a9f4e793c",
                    "label": "Autoplay",
                    "name": "autoplay",
                    "aria-label": "",
                    "type": "true_false",
                    "instructions": "",
                    "required": 0,
                    "conditional_logic": [
                        [
                            {
                                "field": "field_6543a9f4e792b",
                                "operator": "!=",
                                "value": "iframe"
                            }
                        ]
                    ],
                    "wrapper": {
                        "width": "25",
                        "class": "",
                        "id": ""
                    },
                    "message": "",
                    "default_value": 0,
                    "ui_on_text": "",
                    "ui_off_text": "",
                    "ui": 1,
                    "parent_repeater": "field_6543a9f4e674f"
                },
                {
                    "key": "field_6543a9f4e793f",
                    "label": "Muted",
                    "name": "muted",
                    "aria-label": "",
                    "type": "true_false",
                    "instructions": "",
                    "required": 0,
                    "conditional_logic": [
                        [
                            {
                                "field": "field_6543a9f4e792b",
                                "operator": "!=",
                                "value": "iframe"
                            }
                        ]
                    ],
                    "wrapper": {
                        "width": "25",
                        "class": "",
                        "id": ""
                    },
                    "message": "",
                    "default_value": 0,
                    "ui_on_text": "",
                    "ui_off_text": "",
                    "ui": 1,
                    "parent_repeater": "field_6543a9f4e674f"
                },
                {
                    "key": "field_6543a9f4e7942",
                    "label": "Controls",
                    "name": "controls",
                    "aria-label": "",
                    "type": "true_false",
                    "instructions": "",
                    "required": 0,
                    "conditional_logic": [
                        [
                            {
                                "field": "field_6543a9f4e792b",
                                "operator": "!=",
                                "value": "iframe"
                            }
                        ]
                    ],
                    "wrapper": {
                        "width": "",
                        "class": "",
                        "id": ""
                    },
                    "message": "",
                    "default_value": 0,
                    "ui_on_text": "",
                    "ui_off_text": "",
                    "ui": 1,
                    "parent_repeater": "field_6543a9f4e674f"
                },
                {
                    "key": "field_655e6e3f4651c",
                    "label": "Caption",
                    "name": "caption",
                    "aria-label": "",
                    "type": "text",
                    "instructions": "",
                    "required": 0,
                    "conditional_logic": 0,
                    "wrapper": {
                        "width": "",
                        "class": "",
                        "id": ""
                    },
                    "default_value": "",
                    "maxlength": "",
                    "placeholder": "",
                    "prepend": "",
                    "append": "",
                    "parent_repeater": "field_6543a9f4e674f"
                }
            ]
        }
    ],
    "location": [
        [
            {
                "param": "block",
                "operator": "==",
                "value": "acf\/video-carousel"
            }
        ]
    ],
    "menu_order": 0,
    "position": "normal",
    "style": "default",
    "label_placement": "top",
    "instruction_placement": "label",
    "hide_on_screen": "",
    "active": true,
    "description": "",
    "show_in_rest": 0,
    "modified": 1700687429
}
