{
    "key": "group_654b92fc7c94e",
    "title": "News Archive Settings",
    "fields": [
        {
            "key": "field_654b92fc7dbc6",
            "label": "Transparent Header",
            "name": "transparent_header",
            "aria-label": "",
            "type": "true_false",
            "instructions": "Make the site header transparent",
            "required": 0,
            "conditional_logic": 0,
            "wrapper": {
                "width": "",
                "class": "",
                "id": ""
            },
            "message": "",
            "default_value": 0,
            "ui_on_text": "",
            "ui_off_text": "",
            "ui": 1
        },
        {
            "key": "field_654b92fc7dbcb",
            "label": "Show Page Header",
            "name": "show_page_header",
            "aria-label": "",
            "type": "true_false",
            "instructions": "Page header that displays the page title appears before the rest of the page content.",
            "required": 0,
            "conditional_logic": 0,
            "wrapper": {
                "width": "",
                "class": "",
                "id": ""
            },
            "message": "",
            "default_value": 0,
            "ui_on_text": "",
            "ui_off_text": "",
            "ui": 1
        },
        {
            "key": "field_654b92fc7dbce",
            "label": "Hide Page Title",
            "name": "hide_page_title",
            "aria-label": "",
            "type": "true_false",
            "instructions": "Hide the page title in the page header",
            "required": 0,
            "conditional_logic": [
                [
                    {
                        "field": "field_654b92fc7dbcb",
                        "operator": "==",
                        "value": "1"
                    }
                ]
            ],
            "wrapper": {
                "width": "",
                "class": "",
                "id": ""
            },
            "message": "",
            "default_value": 0,
            "ui_on_text": "",
            "ui_off_text": "",
            "ui": 1
        },
        {
            "key": "field_654b92fc7dbd1",
            "label": "Use Custom Title",
            "name": "use_custom_title",
            "aria-label": "",
            "type": "true_false",
            "instructions": "",
            "required": 0,
            "conditional_logic": [
                [
                    {
                        "field": "field_654b92fc7dbcb",
                        "operator": "==",
                        "value": "1"
                    },
                    {
                        "field": "field_654b92fc7dbce",
                        "operator": "!=",
                        "value": "1"
                    }
                ]
            ],
            "wrapper": {
                "width": "",
                "class": "",
                "id": ""
            },
            "message": "",
            "default_value": 0,
            "ui_on_text": "",
            "ui_off_text": "",
            "ui": 1
        },
        {
            "key": "field_654b92fc7dbd4",
            "label": "Custom Title",
            "name": "custom_title",
            "aria-label": "",
            "type": "text",
            "instructions": "This will display instead of the page title in the page header",
            "required": 0,
            "conditional_logic": [
                [
                    {
                        "field": "field_654b92fc7dbcb",
                        "operator": "==",
                        "value": "1"
                    },
                    {
                        "field": "field_654b92fc7dbd1",
                        "operator": "==",
                        "value": "1"
                    },
                    {
                        "field": "field_654b92fc7dbce",
                        "operator": "!=",
                        "value": "1"
                    }
                ]
            ],
            "wrapper": {
                "width": "",
                "class": "",
                "id": ""
            },
            "default_value": "",
            "maxlength": "",
            "placeholder": "",
            "prepend": "",
            "append": ""
        },
        {
            "key": "field_654b92fc7dbd7",
            "label": "Custom Background Image",
            "name": "custom_background_image",
            "aria-label": "",
            "type": "image",
            "instructions": "Use a background image instead of a brand color.",
            "required": 0,
            "conditional_logic": [
                [
                    {
                        "field": "field_654b92fc7dbcb",
                        "operator": "==",
                        "value": "1"
                    }
                ]
            ],
            "wrapper": {
                "width": "",
                "class": "",
                "id": ""
            },
            "return_format": "url",
            "library": "all",
            "min_width": "",
            "min_height": "",
            "min_size": "",
            "max_width": "",
            "max_height": "",
            "max_size": "",
            "mime_types": "",
            "preview_size": "medium"
        },
        {
            "key": "field_654b92fc7dbda",
            "label": "Pre Footer Toggle",
            "name": "pre_footer_on",
            "aria-label": "",
            "type": "true_false",
            "instructions": "Toggle off to not show the pre footer.",
            "required": 0,
            "conditional_logic": 0,
            "wrapper": {
                "width": "",
                "class": "",
                "id": ""
            },
            "message": "",
            "default_value": 1,
            "ui_on_text": "",
            "ui_off_text": "",
            "ui": 1
        },
        {
            "key": "field_654b92fc7dbdc",
            "label": "Turn Off Overlay",
            "name": "turn_off_overlay",
            "aria-label": "",
            "type": "true_false",
            "instructions": "",
            "required": 0,
            "conditional_logic": [
                [
                    {
                        "field": "field_654b92fc7dbcb",
                        "operator": "==",
                        "value": "1"
                    },
                    {
                        "field": "field_654b92fc7dbce",
                        "operator": "!=",
                        "value": "1"
                    },
                    {
                        "field": "field_654b92fc7dbd7",
                        "operator": "!=empty"
                    }
                ]
            ],
            "wrapper": {
                "width": "",
                "class": "",
                "id": ""
            },
            "message": "",
            "default_value": 0,
            "ui_on_text": "",
            "ui_off_text": "",
            "ui": 1
        }
    ],
    "location": [
        [
            {
                "param": "options_page",
                "operator": "==",
                "value": "news-settings"
            }
        ]
    ],
    "menu_order": 0,
    "position": "normal",
    "style": "default",
    "label_placement": "top",
    "instruction_placement": "label",
    "hide_on_screen": "",
    "active": true,
    "description": "",
    "show_in_rest": 0,
    "modified": 1699451763
}
